<?xml version="1.0" standalone="no"?>
<!DOCTYPE svg PUBLIC "-//W3C//DTD SVG 1.1//EN" "http://www.w3.org/Graphics/SVG/1.1/DTD/svg11.dtd">
<svg xmlns="http://www.w3.org/2000/svg">
<metadata>Copyright (C) 2022 by original authors @ fontello.com</metadata>
<defs>
<font id="fontello" horiz-adv-x="1000" >
<font-face font-family="fontello" font-weight="400" font-stretch="normal" units-per-em="1000" ascent="850" descent="-150" />
<missing-glyph horiz-adv-x="1000" />
<glyph glyph-name="cog-outline" unicode="&#xe800;" d="M560 741l-156 0-45-178-176 51-79-136 133-128-133-127 79-135 176 50 45-178 156 0 44 178 178-50 77 135-132 127 132 128-77 136-178-51z m0 104q35 0 63-22t37-57l19-73 74 21q15 4 29 4 60 0 90-53l77-135q18-31 13-66t-30-60l-55-54 55-52q25-25 30-60t-13-67l-77-136q-30-51-90-51-14 0-29 3l-74 21-17-74q-9-35-37-57t-65-22l-156 0q-36 0-64 22t-37 57l-19 74-72-22q-15-4-29-4-60 0-90 53l-79 135q-18 31-13 67t31 61l55 52-55 53q-25 25-30 60t12 67l79 135q30 53 90 53 14 0 29-4l72-21 19 73q9 35 37 57t64 22l156 0z m-78-391q-44 0-74-30t-30-74 30-74 74-30 74 31 31 73-31 73-74 31z m0 52q65 0 110-45t46-111-46-111-110-45-111 45-46 111 46 111 111 45z" horiz-adv-x="963" />

<glyph glyph-name="trash" unicode="&#xe801;" d="M729 636q21 0 37-15t15-36-15-37-37-15l0-417q0-86-61-147t-147-62l-261 0q-86 0-147 62t-60 147l0 417q-22 0-37 15t-16 37 16 36 37 15l51 0 0 53q0 42 30 73t75 31l364 0q43 0 74-31t31-73l0-53 51 0z m-520 53l0-53 364 0 0 53-364 0z m416-573l0 417-469 0 0-417q0-43 31-74t73-31l261 0q43 0 73 31t31 74z m-390 338q10 0 18-8t7-17l0-313q0-10-7-18t-18-8-18 8-8 18l0 313q0 10 8 17t18 8z m104 0q10 0 18-8t8-17l0-313q0-10-8-18t-18-8-18 8-8 18l0 313q0 10 8 17t18 8z m104 0q10 0 18-8t8-17l0-313q0-10-8-18t-18-8-19 8-8 18l0 313q0 10 8 17t19 8z m105 0q10 0 17-8t8-17l0-313q0-10-8-18t-17-8-19 8-8 18l0 313q0 10 8 17t19 8z" horiz-adv-x="781" />

<glyph glyph-name="key-outline" unicode="&#xe802;" d="M313-67l-313 0 0 230 198 198q-15 45-15 94 0 130 91 221t221 91 221-91 92-221-92-222-221-91l-79 0 0-105-103 0 0-104z m-209 104l105 0 0 105 104 0 0 104 182 0q86 0 147 61t61 148-61 146-147 61-147-61-62-146q0-45 19-87l15-32-216-216 0-83z m391 469q-21 0-37-15t-15-36 15-37 37-16 37 16 16 37-16 36-37 15z m0 52q43 0 73-30t31-73q0-44-31-75t-73-30-74 31-31 74 31 73 74 30z" horiz-adv-x="808" />

<glyph glyph-name="cancel" unicode="&#xe803;" d="M596 632q32-31 32-74t-32-74l-135-135 135-135q32-31 32-73t-32-74q-30-30-73-30t-74 30l-135 135-135-135q-30-30-74-30t-74 30q-31 31-31 74t31 73l135 135-135 135q-31 32-31 74t31 74q30 31 74 31t74-31l135-135 135 135q30 31 74 31t73-31z" horiz-adv-x="628" />

<glyph glyph-name="logout" unicode="&#xe804;" d="M912 614l276-266-276-264v177h-413v176h413v177z m-166-512l106-107q-156-146-338-146-217 0-365 143t-149 359q0 135 68 250t184 182 250 66q184 0 349-148l-105-106q-114 104-243 104-149 0-251-104t-103-254q0-140 106-241t247-101q131 0 244 103z" horiz-adv-x="1188" />

<glyph glyph-name="lock" unicode="&#xe805;" d="M298 116q0 68 67 68t68-68-68-67-67 67z m67 677q85 0 146-62t62-146l0-105 52 0q43 0 73-31t31-73l0-365q0-42-31-73t-73-31l-521 0q-44 0-74 31t-30 73l0 365q0 43 30 73t74 31l52 0 0 105q0 60 30 107t74 73q48 28 105 28z m0-104q-44 0-74-31t-31-73l0-156 209 0 0 156q0 44-31 74t-73 30z m260-678l0 365-521 0 0-365 521 0z" horiz-adv-x="729" />

<glyph glyph-name="ok" unicode="&#xe807;" d="M625 676q38-20 49-63t-9-80l-260-469q-30-53-91-53-43 0-74 31l-209 207q-31 32-31 74t31 74 74 31 74-31l111-110 193 347q20 38 62 50t80-8z" horiz-adv-x="679" />
</font>
</defs>
</svg>
